%YAML 1.1
%TAG !u! tag:unity3d.com,2011:
--- !u!1001 &7559091143170789445
PrefabInstance:
  m_ObjectHideFlags: 0
  serializedVersion: 2
  m_Modification:
    m_TransformParent: {fileID: 0}
    m_Modifications:
    - target: {fileID: 6873802792666382689, guid: 321bb7222efbb1346aac000fbdaef9de,
        type: 3}
      propertyPath: m_Name
      value: Purple Block
      objectReference: {fileID: 0}
    - target: {fileID: 2830221954298136179, guid: 321bb7222efbb1346aac000fbdaef9de,
        type: 3}
      propertyPath: m_LocalPosition.x
      value: 0
      objectReference: {fileID: 0}
    - target: {fileID: 2830221954298136179, guid: 321bb7222efbb1346aac000fbdaef9de,
        type: 3}
      propertyPath: m_LocalPosition.y
      value: 0
      objectReference: {fileID: 0}
    - target: {fileID: 2830221954298136179, guid: 321bb7222efbb1346aac000fbdaef9de,
        type: 3}
      propertyPath: m_LocalPosition.z
      value: 0
      objectReference: {fileID: 0}
    - target: {fileID: 2830221954298136179, guid: 321bb7222efbb1346aac000fbdaef9de,
        type: 3}
      propertyPath: m_LocalRotation.x
      value: 0
      objectReference: {fileID: 0}
    - target: {fileID: 2830221954298136179, guid: 321bb7222efbb1346aac000fbdaef9de,
        type: 3}
      propertyPath: m_LocalRotation.y
      value: 0
      objectReference: {fileID: 0}
    - target: {fileID: 2830221954298136179, guid: 321bb7222efbb1346aac000fbdaef9de,
        type: 3}
      propertyPath: m_LocalRotation.z
      value: 0
      objectReference: {fileID: 0}
    - target: {fileID: 2830221954298136179, guid: 321bb7222efbb1346aac000fbdaef9de,
        type: 3}
      propertyPath: m_LocalRotation.w
      value: 1
      objectReference: {fileID: 0}
    - target: {fileID: 2830221954298136179, guid: 321bb7222efbb1346aac000fbdaef9de,
        type: 3}
      propertyPath: m_RootOrder
      value: 0
      objectReference: {fileID: 0}
    - target: {fileID: 2830221954298136179, guid: 321bb7222efbb1346aac000fbdaef9de,
        type: 3}
      propertyPath: m_LocalEulerAnglesHint.x
      value: 0
      objectReference: {fileID: 0}
    - target: {fileID: 2830221954298136179, guid: 321bb7222efbb1346aac000fbdaef9de,
        type: 3}
      propertyPath: m_LocalEulerAnglesHint.y
      value: 0
      objectReference: {fileID: 0}
    - target: {fileID: 2830221954298136179, guid: 321bb7222efbb1346aac000fbdaef9de,
        type: 3}
      propertyPath: m_LocalEulerAnglesHint.z
      value: 0
      objectReference: {fileID: 0}
    - target: {fileID: 2830221954298136179, guid: 321bb7222efbb1346aac000fbdaef9de,
        type: 3}
      propertyPath: m_AnchoredPosition.x
      value: 0
      objectReference: {fileID: 0}
    - target: {fileID: 2830221954298136179, guid: 321bb7222efbb1346aac000fbdaef9de,
        type: 3}
      propertyPath: m_AnchoredPosition.y
      value: 0
      objectReference: {fileID: 0}
    - target: {fileID: 2830221954298136179, guid: 321bb7222efbb1346aac000fbdaef9de,
        type: 3}
      propertyPath: m_SizeDelta.x
      value: -10
      objectReference: {fileID: 0}
    - target: {fileID: 2830221954298136179, guid: 321bb7222efbb1346aac000fbdaef9de,
        type: 3}
      propertyPath: m_SizeDelta.y
      value: -10
      objectReference: {fileID: 0}
    - target: {fileID: 2830221954298136179, guid: 321bb7222efbb1346aac000fbdaef9de,
        type: 3}
      propertyPath: m_AnchorMin.x
      value: 0
      objectReference: {fileID: 0}
    - target: {fileID: 2830221954298136179, guid: 321bb7222efbb1346aac000fbdaef9de,
        type: 3}
      propertyPath: m_AnchorMin.y
      value: 0
      objectReference: {fileID: 0}
    - target: {fileID: 2830221954298136179, guid: 321bb7222efbb1346aac000fbdaef9de,
        type: 3}
      propertyPath: m_AnchorMax.x
      value: 1
      objectReference: {fileID: 0}
    - target: {fileID: 2830221954298136179, guid: 321bb7222efbb1346aac000fbdaef9de,
        type: 3}
      propertyPath: m_AnchorMax.y
      value: 1
      objectReference: {fileID: 0}
    - target: {fileID: 2830221954298136179, guid: 321bb7222efbb1346aac000fbdaef9de,
        type: 3}
      propertyPath: m_Pivot.x
      value: 0.5
      objectReference: {fileID: 0}
    - target: {fileID: 2830221954298136179, guid: 321bb7222efbb1346aac000fbdaef9de,
        type: 3}
      propertyPath: m_Pivot.y
      value: 0.5
      objectReference: {fileID: 0}
    - target: {fileID: 4067542308835110176, guid: 321bb7222efbb1346aac000fbdaef9de,
        type: 3}
      propertyPath: m_Sprite
      value: 
      objectReference: {fileID: 21300000, guid: b95e6e2a6788a4d09be39b81800f2995,
        type: 3}
    m_RemovedComponents: []
  m_SourcePrefab: {fileID: 100100000, guid: 321bb7222efbb1346aac000fbdaef9de, type: 3}
