{
    "name": "TestBlast.Views",
    "references": [
        "GUID:f0daf0cd445cd30438add71898d6549e",
        "GUID:f5455e2de031cdb4aa58908ba78da4c0",
        "GUID:6055be8ebefd69e48b49212b09b47b2f",
        "GUID:0d8beb7f090555447a6cf5ce9e54dbb4"
    ],
    "includePlatforms": [],
    "excludePlatforms": [],
    "allowUnsafeCode": false,
    "overrideReferences": false,
    "precompiledReferences": [],
    "autoReferenced": true,
    "defineConstraints": [],
    "versionDefines": []
}